<?xml version="1.0" encoding="utf-8"?>
<!-- Generator: Adobe Illustrator 16.0.4, SVG Export Plug-In . SVG Version: 6.00 Build 0)  -->
<!DOCTYPE svg PUBLIC "-//W3C//DTD SVG 1.1//EN" "http://www.w3.org/Graphics/SVG/1.1/DTD/svg11.dtd">
<svg version="1.1" id="Layer_1" xmlns:svg="http://www.w3.org/2000/svg"
	 xmlns="http://www.w3.org/2000/svg" xmlns:xlink="http://www.w3.org/1999/xlink" x="0px" y="0px" width="1052px" height="744px"
	 viewBox="0 0 1052 744" enable-background="new 0 0 1052 744" xml:space="preserve">
<g id="g3" transform="translate(0,148)">
	
		<line id="line5" fill="none" stroke="#FFFFFF" stroke-width="24.5" stroke-linecap="round" stroke-miterlimit="10" x1="309.871" y1="54.42" x2="309.871" y2="314.909"/>
	
		<line id="line7" fill="none" stroke="#FFFFFF" stroke-width="23.55" stroke-linecap="round" stroke-miterlimit="10" x1="386.563" y1="10.928" x2="386.563" y2="371.674"/>
	
		<line id="line9" fill="none" stroke="#FFFFFF" stroke-width="23.55" stroke-linecap="round" stroke-miterlimit="10" x1="386.62" y1="372.142" x2="747.371" y2="372.142"/>
	<path id="path11" fill="none" stroke="#FFFFFF" stroke-width="24.5" stroke-linecap="round" stroke-miterlimit="10" d="
		M464.25,54.258c71.928,0,130.241,58.32,130.241,130.247c0,71.936-58.313,130.243-130.241,130.243"/>
	<g id="g13" transform="translate(78.641534,-97.239073)">
		
			<line id="line15" fill="none" stroke="#FFFFFF" stroke-width="24.5" stroke-linecap="round" stroke-miterlimit="10" x1="558.03" y1="411.151" x2="611.653" y2="261.251"/>
		
			<line id="line17" fill="none" stroke="#FFFFFF" stroke-width="24.5" stroke-linecap="round" stroke-miterlimit="10" x1="667.425" y1="411.151" x2="613.796" y2="261.251"/>
	</g>
	
		<line id="line5-3" fill="none" stroke="#FFFFFF" stroke-width="24.9561" stroke-linecap="round" stroke-miterlimit="10" x1="461.477" y1="54.872" x2="461.477" y2="125.431"/>
</g>
</svg>
